{
  "entrenadores" : [
    {"nombre" : "Carlos Andres Pereira R.",  "telefono" : "311 445 74 78",  "cargo" : "Preparador físico",  "especialidad" : "Actividad Física, Aeróbicos -Coldeportes"},
    {"nombre" : "Martha Castiblando T.",  "telefono" : "397 874 95 921",  "cargo" : "Entrenador Personal",  "especialidad" : "Patología de Rodilla, Rehabilitación Funcional"},
    {"nombre" : "José Vanegas C.",  "telefono" : "311 589 95 24",  "cargo" : "Entrenador Físico",  "especialidad" : "Personal Trainer, Recuperación Muscuarticular"},
    {"nombre" : "Valentina Romero S.",  "telefono" : "321 489 99 33",  "cargo" : "Lic. Educación Física y Deportes",  "especialidad" : "Dánzika, Aeróbicos por FEDA"},
    {"nombre" : "Juan José Aguirre H.",  "telefono" : "305 889 45 33",  "cargo" : "Entrenador Funcional",  "especialidad" : "Yoga Sport Fitness, Yoga"},
    {"nombre" : "Carlos Giraldo R.",  "telefono" : "311 445 74 78",  "cargo" : "Preparador físico",  "especialidad" : "Actividad Física, Aeróbicos -Coldeportes"},
    {"nombre" : "Fabian Torres A.",  "telefono" : "397 874 95 921",  "cargo" : "Entrenador Personal",  "especialidad" : "Patología de Rodilla, Rehabilitación Funcional"},
    {"nombre" : "Jorge Losada T.",  "telefono" : "311 445 74 78",  "cargo" : "Preparador físico",  "especialidad" : "Actividad Física, Aeróbicos -Coldeportes"},
    {"nombre" : "Sofia Pineda F..",  "telefono" : "397 874 95 921",  "cargo" : "Entrenador Personal",  "especialidad" : "Actividad Física, Rehabilitación Funcional"}
  ]
}