{
  "item" : [
    {"nombre" : "Inicio",  "enlace" : "index.php"},
    {"nombre" : "Entrenadores",  "enlace" : "entrenadores.php"},
    {"nombre" : "Contacto",  "enlace" : "contacto.php"},
    {"nombre" : "Usuarios",  "enlace" : "usuarios.php"}
  ]
}